{
  "data": {
    "curPage": 1,
    "datas": [
      ...
    ],
    "offset": 0,
    "over": false,
    "pageCount": 782,
    "size": 20,
    "total": 15623
  },
  "errorCode": 0,
  "errorMsg": ""
}